…
Typically, list information is nicely ordered, however printing is
really verbose. Therefore, we can gather the list into a so-called
spectral tibble (`spc_tbl`).

``` r
# Gather from list into tibble data.frame
(spc_tbl <- 
  spc_list %>%
  gather_spc())
```

    ## # A tibble: 284 x 6
    ##    unique_id        file_id    sample_id   metadata   spc       wavenumbers
    ##    <chr>            <chr>      <chr>       <named li> <named l> <named lis>
    ##  1 BF_lo_01_soil_c… BF_lo_01_… BF_lo_01_s… <tibble [… <df[,171… <dbl [1,71…
    ##  2 BF_lo_01_soil_c… BF_lo_01_… BF_lo_01_s… <tibble [… <df[,171… <dbl [1,71…
    ##  3 BF_lo_01_soil_c… BF_lo_01_… BF_lo_01_s… <tibble [… <df[,171… <dbl [1,71…
    ##  4 BF_lo_02_soil_c… BF_lo_02_… BF_lo_02_s… <tibble [… <df[,171… <dbl [1,71…
    ##  5 BF_lo_02_soil_c… BF_lo_02_… BF_lo_02_s… <tibble [… <df[,171… <dbl [1,71…
    ##  6 BF_lo_02_soil_c… BF_lo_02_… BF_lo_02_s… <tibble [… <df[,171… <dbl [1,71…
    ##  7 BF_lo_03_soil_c… BF_lo_03_… BF_lo_03_s… <tibble [… <df[,171… <dbl [1,71…
    ##  8 BF_lo_03_soil_c… BF_lo_03_… BF_lo_03_s… <tibble [… <df[,171… <dbl [1,71…
    ##  9 BF_lo_03_soil_c… BF_lo_03_… BF_lo_03_s… <tibble [… <df[,171… <dbl [1,71…
    ## 10 BF_lo_04_soil_c… BF_lo_04_… BF_lo_04_s… <tibble [… <df[,171… <dbl [1,71…
    ## # … with 274 more rows
…
